210929_145654 0DA0 CFC0448 N version information: Broker 19.3.1.4 bran win64 rel [rev-30861] { May 13 2021 13:47:53 }
210929_145654 0DA0 CFC0429 N HOST_NAME=DESKTOP-0FCAJP7(192.168.56.1)
210929_145654 0DA0 CFC0429 N REMOTE_SERVER_NAME=suntexbrasil108329.protheus.cloudtotvs.com.br
210929_145654 0DA0 CFC0437 N REMOTE_SERVER_PORT=4000
210929_145654 0DA0 CFC0437 N RETRY_INTERVAL=10
210929_145654 0DA0 CFC0437 N MAX_RETRY_TIME=180
210929_145654 0DA0 WDL0160 N starting broker client
210929_145654 0DA0 WDL0163 N using broker server suntexbrasil108329.protheus.cloudtotvs.com.br:4000
210929_145654 0DA0 WDL0652 N broker client using local port: 51966
210929_145654 0DA0 WDL0661 N broker client started operation
210929_145654 43E8 CTC2665 N O 01 ctx:008 waiting connection with broker, handle=11
210929_145654 43E8 CTC0993 N x 26 ctx:008 received result from connect operation: handle=11 state=26 result=0 serverHandleId=11
210929_145654 43E8 CTC1058 W x 07 ctx:008 will send alerts to broker 181.41.165.187:4000
210929_145654 43E8 CTC3025 N x 07 ctx:008 sending initial handshake p:[192.168.0.103:58179] s:[181.41.165.187:4000] id:[D0C42DCF-621F3D46-BA0E2552-7EE2C0D8]
210929_145654 0D5C CTC2822 N x 22 ctx:008 starting reception of response for initial handshake c:127.0.0.1:58178 p:192.168.0.103:58179 s:181.41.165.187:4000
210929_145654 0D5C CTC1532 N x 19 ctx:008 received response of initial handshake c:127.0.0.1:58178 p:192.168.0.103:58179 s:181.41.165.187:4000
210929_145654 0D5C CTC2159 N x 18 ctx:008 success creating new connection [7876094F-F2274E5A-A40AE5B9-FEF6A4CE] c:127.0.0.1:58178 p:192.168.0.103:58179 s:181.41.165.187:4000
210929_145654 0D5C CTC2169 N x 18 ctx:008 connected with remote server 10.0.0.11:6000
210929_145654 0D5C CTC1413 W x 04 ctx:008 @@@ smartclient esta' usando SSL
210929_145654 0D5C CTC0164 W x 04 ctx:008 @@@ conexao client SSL nao vai ser aceita pelo server (server esta' em modo nao-SSL)
210929_145654 0D5C CTC0165 W x 04 ctx:008 @@@ fecha conexao com client, deixa smartclient fazer retry
210929_145654 0D5C CTC0887 W x 04 ctx:008 closing client connection c:127.0.0.1:58178 p:192.168.0.103:58179 s:181.41.165.187:4000
210929_145654 0D5C CTC0894 W x 04 ctx:008 closing server connection c:127.0.0.1:58178 p:192.168.0.103:58179 s:181.41.165.187:4000
210929_145654 0D5C CTC2665 N O 01 ctx:009 waiting connection with broker, handle=13
210929_145654 0D5C CTC0993 N x 26 ctx:009 received result from connect operation: handle=13 state=26 result=0 serverHandleId=13
210929_145654 0D5C CTC1058 W x 07 ctx:009 will send alerts to broker 181.41.165.187:4000
210929_145654 0D5C CTC3025 N x 07 ctx:009 sending initial handshake p:[192.168.0.103:58181] s:[181.41.165.187:4000] id:[29BBAFCE-57B40F4C-8121E5D5-CEAB8A2A]
210929_145654 43E8 CTC2822 N x 22 ctx:009 starting reception of response for initial handshake c:127.0.0.1:58180 p:192.168.0.103:58181 s:181.41.165.187:4000
210929_145654 43E8 CTC1532 N x 19 ctx:009 received response of initial handshake c:127.0.0.1:58180 p:192.168.0.103:58181 s:181.41.165.187:4000
210929_145654 43E8 CTC2159 N x 18 ctx:009 success creating new connection [CDDD3565-FAE84E85-89081370-BD9A0B35] c:127.0.0.1:58180 p:192.168.0.103:58181 s:181.41.165.187:4000
210929_145654 43E8 CTC2169 N x 18 ctx:009 connected with remote server 10.0.0.11:6000
210929_145654 0D5C CTC1413 W x 04 ctx:009 @@@ smartclient esta' usando SSL
210929_145654 0D5C CTC0164 W x 04 ctx:009 @@@ conexao client SSL nao vai ser aceita pelo server (server esta' em modo nao-SSL)
210929_145654 0D5C CTC0165 W x 04 ctx:009 @@@ fecha conexao com client, deixa smartclient fazer retry
210929_145654 0D5C CTC0887 W x 04 ctx:009 closing client connection c:127.0.0.1:58180 p:192.168.0.103:58181 s:181.41.165.187:4000
210929_145654 0D5C CTC0894 W x 04 ctx:009 closing server connection c:127.0.0.1:58180 p:192.168.0.103:58181 s:181.41.165.187:4000
210929_145654 0D5C CTC2665 N O 01 ctx:010 waiting connection with broker, handle=15
210929_145655 0D5C CTC0993 N x 26 ctx:010 received result from connect operation: handle=15 state=26 result=0 serverHandleId=15
210929_145655 0D5C CTC1058 W x 07 ctx:010 will send alerts to broker 181.41.165.187:4000
210929_145655 0D5C CTC3025 N x 07 ctx:010 sending initial handshake p:[192.168.0.103:58183] s:[181.41.165.187:4000] id:[55EB58C6-13BAF144-B1269A66-2C6D665F]
210929_145655 43E8 CTC2822 N x 22 ctx:010 starting reception of response for initial handshake c:127.0.0.1:58182 p:192.168.0.103:58183 s:181.41.165.187:4000
210929_145655 43E8 CTC1532 N x 19 ctx:010 received response of initial handshake c:127.0.0.1:58182 p:192.168.0.103:58183 s:181.41.165.187:4000
210929_145655 43E8 CTC2159 N x 18 ctx:010 success creating new connection [7A140FB8-E8364485-8F5D89F6-1A964BE7] c:127.0.0.1:58182 p:192.168.0.103:58183 s:181.41.165.187:4000
210929_145655 43E8 CTC2169 N x 18 ctx:010 connected with remote server 10.0.0.11:6000
210929_145655 0D5C CTC1415 W x 04 ctx:010 ### smartclient NAO esta' usando SSL
210929_145655 0D5C CTC1475 N x 04 ctx:010 ### iniciando processamento normal, conexao com server foi bem sucedida
210929_145738 14D8 CTC2665 N O 01 ctx:011 waiting connection with broker, handle=17
210929_145738 14D8 CTC0993 N x 26 ctx:011 received result from connect operation: handle=17 state=26 result=0 serverHandleId=17
210929_145738 14D8 CTC1058 W x 07 ctx:011 will send alerts to broker 181.41.165.187:4000
210929_145738 14D8 CTC3025 N x 07 ctx:011 sending initial handshake p:[192.168.0.103:56615] s:[181.41.165.187:4000] id:[813AC92C-CBF2F04C-9A3C7845-3B869C82]
210929_145738 43E8 CTC2822 N x 22 ctx:011 starting reception of response for initial handshake c:127.0.0.1:56614 p:192.168.0.103:56615 s:181.41.165.187:4000
210929_145738 43E8 CTC1532 N x 19 ctx:011 received response of initial handshake c:127.0.0.1:56614 p:192.168.0.103:56615 s:181.41.165.187:4000
210929_145738 43E8 CTC2159 N x 18 ctx:011 success creating new connection [BBD2D9D4-5FAF45AB-9AA71CBD-61E5E097] c:127.0.0.1:56614 p:192.168.0.103:56615 s:181.41.165.187:4000
210929_145738 43E8 CTC2169 N x 18 ctx:011 connected with remote server 10.0.0.6:6000
210929_145738 14D8 CTC1415 W x 04 ctx:011 ### smartclient NAO esta' usando SSL
210929_145738 14D8 CTC1475 N x 04 ctx:011 ### iniciando processamento normal, conexao com server foi bem sucedida
210929_145800 0D5C CTC1403 W x 04 ctx:011 client connection remotely closed c:127.0.0.1:56614 p:192.168.0.103:56615 s:181.41.165.187:4000
210929_145800 14D8 SPC0399 W C 06 ctx:011 server closed connection (was expected)
210929_145859 14D8 CTC1403 W x 04 ctx:010 client connection remotely closed c:127.0.0.1:58182 p:192.168.0.103:58183 s:181.41.165.187:4000
210929_145859 14D8 SPC0399 W C 06 ctx:010 server closed connection (was expected)
