210929_220935 5EF4 CFC0448 N version information: Broker 19.3.1.4 bran win64 rel [rev-30861] { May 13 2021 13:47:53 }
210929_220935 5EF4 CFC0429 N HOST_NAME=DESKTOP-0FCAJP7(192.168.56.1)
210929_220935 5EF4 CFC0429 N REMOTE_SERVER_NAME=suntexbrasil108329.protheus.cloudtotvs.com.br
210929_220935 5EF4 CFC0437 N REMOTE_SERVER_PORT=4000
210929_220935 5EF4 CFC0437 N RETRY_INTERVAL=10
210929_220935 5EF4 CFC0437 N MAX_RETRY_TIME=180
210929_220935 5EF4 WDL0160 N starting broker client
210929_220935 5EF4 WDL0163 N using broker server suntexbrasil108329.protheus.cloudtotvs.com.br:4000
210929_220935 5EF4 WDL0652 N broker client using local port: 51966
210929_220935 5EF4 WDL0661 N broker client started operation
210929_220935 60F8 CTC2665 N O 01 ctx:008 waiting connection with broker, handle=11
210929_220935 60F8 CTC0993 N x 26 ctx:008 received result from connect operation: handle=11 state=26 result=0 serverHandleId=11
210929_220935 60F8 CTC1058 W x 07 ctx:008 will send alerts to broker 181.41.165.187:4000
210929_220935 60F8 CTC3025 N x 07 ctx:008 sending initial handshake p:[192.168.1.160:64947] s:[181.41.165.187:4000] id:[ECD67EB3-8DEE7349-A335F5F2-E03771AA]
210929_220935 6308 CTC2822 N x 22 ctx:008 starting reception of response for initial handshake c:127.0.0.1:64946 p:192.168.1.160:64947 s:181.41.165.187:4000
210929_220935 6308 CTC1532 N x 19 ctx:008 received response of initial handshake c:127.0.0.1:64946 p:192.168.1.160:64947 s:181.41.165.187:4000
210929_220935 6308 CTC2159 N x 18 ctx:008 success creating new connection [2863F871-0BED4FA1-AC8B100D-7E34AF60] c:127.0.0.1:64946 p:192.168.1.160:64947 s:181.41.165.187:4000
210929_220935 6308 CTC2169 N x 18 ctx:008 connected with remote server 10.0.0.6:6000
210929_220935 6308 CTC1413 W x 04 ctx:008 @@@ smartclient esta' usando SSL
210929_220935 6308 CTC0164 W x 04 ctx:008 @@@ conexao client SSL nao vai ser aceita pelo server (server esta' em modo nao-SSL)
210929_220935 6308 CTC0165 W x 04 ctx:008 @@@ fecha conexao com client, deixa smartclient fazer retry
210929_220935 6308 CTC0887 W x 04 ctx:008 closing client connection c:127.0.0.1:64946 p:192.168.1.160:64947 s:181.41.165.187:4000
210929_220935 6308 CTC0894 W x 04 ctx:008 closing server connection c:127.0.0.1:64946 p:192.168.1.160:64947 s:181.41.165.187:4000
210929_220935 6308 CTC2665 N O 01 ctx:009 waiting connection with broker, handle=13
210929_220935 6308 CTC0993 N x 26 ctx:009 received result from connect operation: handle=13 state=26 result=0 serverHandleId=13
210929_220935 6308 CTC1058 W x 07 ctx:009 will send alerts to broker 181.41.165.187:4000
210929_220935 6308 CTC3025 N x 07 ctx:009 sending initial handshake p:[192.168.1.160:64949] s:[181.41.165.187:4000] id:[FFE36399-92E3D047-9D7A5FA1-9AD362AB]
210929_220935 60F8 CTC2822 N x 22 ctx:009 starting reception of response for initial handshake c:127.0.0.1:64948 p:192.168.1.160:64949 s:181.41.165.187:4000
210929_220935 60F8 CTC1532 N x 19 ctx:009 received response of initial handshake c:127.0.0.1:64948 p:192.168.1.160:64949 s:181.41.165.187:4000
210929_220935 60F8 CTC2159 N x 18 ctx:009 success creating new connection [8BC5A19C-4E15478F-A1492BE1-BE103E65] c:127.0.0.1:64948 p:192.168.1.160:64949 s:181.41.165.187:4000
210929_220935 60F8 CTC2169 N x 18 ctx:009 connected with remote server 10.0.0.6:6000
210929_220935 6308 CTC1413 W x 04 ctx:009 @@@ smartclient esta' usando SSL
210929_220935 6308 CTC0164 W x 04 ctx:009 @@@ conexao client SSL nao vai ser aceita pelo server (server esta' em modo nao-SSL)
210929_220935 6308 CTC0165 W x 04 ctx:009 @@@ fecha conexao com client, deixa smartclient fazer retry
210929_220935 6308 CTC0887 W x 04 ctx:009 closing client connection c:127.0.0.1:64948 p:192.168.1.160:64949 s:181.41.165.187:4000
210929_220935 6308 CTC0894 W x 04 ctx:009 closing server connection c:127.0.0.1:64948 p:192.168.1.160:64949 s:181.41.165.187:4000
210929_220935 6308 CTC2665 N O 01 ctx:010 waiting connection with broker, handle=15
210929_220935 6308 CTC0993 N x 26 ctx:010 received result from connect operation: handle=15 state=26 result=0 serverHandleId=15
210929_220935 6308 CTC1058 W x 07 ctx:010 will send alerts to broker 181.41.165.187:4000
210929_220935 6308 CTC3025 N x 07 ctx:010 sending initial handshake p:[192.168.1.160:64951] s:[181.41.165.187:4000] id:[140586C8-01F78D4B-838FB33B-F2578938]
210929_220935 60F8 CTC2822 N x 22 ctx:010 starting reception of response for initial handshake c:127.0.0.1:64950 p:192.168.1.160:64951 s:181.41.165.187:4000
210929_220935 60F8 CTC1532 N x 19 ctx:010 received response of initial handshake c:127.0.0.1:64950 p:192.168.1.160:64951 s:181.41.165.187:4000
210929_220935 60F8 CTC2159 N x 18 ctx:010 success creating new connection [67E4847C-B98546F8-92F98F9B-B6FB3F6D] c:127.0.0.1:64950 p:192.168.1.160:64951 s:181.41.165.187:4000
210929_220935 60F8 CTC2169 N x 18 ctx:010 connected with remote server 10.0.0.6:6000
210929_220935 6308 CTC1415 W x 04 ctx:010 ### smartclient NAO esta' usando SSL
210929_220936 6308 CTC1475 N x 04 ctx:010 ### iniciando processamento normal, conexao com server foi bem sucedida
210929_221009 6308 CTC2665 N O 01 ctx:011 waiting connection with broker, handle=17
210929_221009 6308 CTC0993 N x 26 ctx:011 received result from connect operation: handle=17 state=26 result=0 serverHandleId=17
210929_221009 6308 CTC1058 W x 07 ctx:011 will send alerts to broker 181.41.165.187:4000
210929_221009 6308 CTC3025 N x 07 ctx:011 sending initial handshake p:[192.168.1.160:61770] s:[181.41.165.187:4000] id:[AF21FE41-6FF3D84E-9F975F57-3BFE17DD]
210929_221009 60F8 CTC2822 N x 22 ctx:011 starting reception of response for initial handshake c:127.0.0.1:61769 p:192.168.1.160:61770 s:181.41.165.187:4000
210929_221009 60F8 CTC1532 N x 19 ctx:011 received response of initial handshake c:127.0.0.1:61769 p:192.168.1.160:61770 s:181.41.165.187:4000
210929_221009 60F8 CTC2159 N x 18 ctx:011 success creating new connection [D9559783-F9A34CD0-AF58D206-C1435F97] c:127.0.0.1:61769 p:192.168.1.160:61770 s:181.41.165.187:4000
210929_221009 60F8 CTC2169 N x 18 ctx:011 connected with remote server 10.0.0.13:6000
210929_221009 6308 CTC1415 W x 04 ctx:011 ### smartclient NAO esta' usando SSL
210929_221009 6308 CTC1475 N x 04 ctx:011 ### iniciando processamento normal, conexao com server foi bem sucedida
210929_221602 60F8 CTC1403 W x 04 ctx:011 client connection remotely closed c:127.0.0.1:61769 p:192.168.1.160:61770 s:181.41.165.187:4000
210929_221602 6308 SPC0399 W C 06 ctx:011 server closed connection (was expected)
210929_221602 4618 CTC1403 W x 04 ctx:010 client connection remotely closed c:127.0.0.1:64950 p:192.168.1.160:64951 s:181.41.165.187:4000
210929_221602 60F8 SPC0399 W C 06 ctx:010 server closed connection (was expected)
