210929_170448 2B24 CFC0448 N version information: Broker 19.3.1.4 bran win64 rel [rev-30861] { May 13 2021 13:47:53 }
210929_170448 2B24 CFC0429 N HOST_NAME=DESKTOP-0FCAJP7(192.168.56.1)
210929_170448 2B24 CFC0429 N REMOTE_SERVER_NAME=suntexbrasil108331.protheus.cloudtotvs.com.br
210929_170448 2B24 CFC0437 N REMOTE_SERVER_PORT=4000
210929_170448 2B24 CFC0437 N RETRY_INTERVAL=10
210929_170448 2B24 CFC0437 N MAX_RETRY_TIME=180
210929_170448 2B24 WDL0160 N starting broker client
210929_170448 2B24 WDL0163 N using broker server suntexbrasil108331.protheus.cloudtotvs.com.br:4000
210929_170448 2B24 WDL0652 N broker client using local port: 51967
210929_170448 2B24 WDL0661 N broker client started operation
210929_170448 5914 CTC2665 N O 01 ctx:008 waiting connection with broker, handle=12
210929_170448 5914 CTC0993 N x 26 ctx:008 received result from connect operation: handle=12 state=26 result=0 serverHandleId=12
210929_170448 5914 CTC1058 W x 07 ctx:008 will send alerts to broker 181.41.165.211:4000
210929_170448 5914 CTC3025 N x 07 ctx:008 sending initial handshake p:[192.168.1.160:52532] s:[181.41.165.211:4000] id:[5DA254C7-246F4F4A-AE52E7F9-00FAEB1C]
210929_170448 23D0 CTC2822 N x 22 ctx:008 starting reception of response for initial handshake c:127.0.0.1:52531 p:192.168.1.160:52532 s:181.41.165.211:4000
210929_170448 23D0 CTC1532 N x 19 ctx:008 received response of initial handshake c:127.0.0.1:52531 p:192.168.1.160:52532 s:181.41.165.211:4000
210929_170448 23D0 CTC2159 N x 18 ctx:008 success creating new connection [91486389-83074518-BBBB3E3E-89CB3049] c:127.0.0.1:52531 p:192.168.1.160:52532 s:181.41.165.211:4000
210929_170448 23D0 CTC2169 N x 18 ctx:008 connected with remote server 10.0.1.4:6000
210929_170449 23D0 CTC1413 W x 04 ctx:008 @@@ smartclient esta' usando SSL
210929_170449 23D0 CTC0164 W x 04 ctx:008 @@@ conexao client SSL nao vai ser aceita pelo server (server esta' em modo nao-SSL)
210929_170449 23D0 CTC0165 W x 04 ctx:008 @@@ fecha conexao com client, deixa smartclient fazer retry
210929_170449 23D0 CTC0887 W x 04 ctx:008 closing client connection c:127.0.0.1:52531 p:192.168.1.160:52532 s:181.41.165.211:4000
210929_170449 23D0 CTC0894 W x 04 ctx:008 closing server connection c:127.0.0.1:52531 p:192.168.1.160:52532 s:181.41.165.211:4000
210929_170449 23D0 CTC2665 N O 01 ctx:009 waiting connection with broker, handle=14
210929_170449 23D0 CTC0993 N x 26 ctx:009 received result from connect operation: handle=14 state=26 result=0 serverHandleId=14
210929_170449 23D0 CTC1058 W x 07 ctx:009 will send alerts to broker 181.41.165.211:4000
210929_170449 23D0 CTC3025 N x 07 ctx:009 sending initial handshake p:[192.168.1.160:52537] s:[181.41.165.211:4000] id:[ADC2EA6B-0CC65A4E-9690A37E-BEED010A]
210929_170449 5914 CTC2822 N x 22 ctx:009 starting reception of response for initial handshake c:127.0.0.1:52536 p:192.168.1.160:52537 s:181.41.165.211:4000
210929_170449 5914 CTC1532 N x 19 ctx:009 received response of initial handshake c:127.0.0.1:52536 p:192.168.1.160:52537 s:181.41.165.211:4000
210929_170449 5914 CTC2159 N x 18 ctx:009 success creating new connection [1E1DCBAC-B6884855-AFFB67B3-CF5C39D7] c:127.0.0.1:52536 p:192.168.1.160:52537 s:181.41.165.211:4000
210929_170449 5914 CTC2169 N x 18 ctx:009 connected with remote server 10.0.1.4:6000
210929_170449 23D0 CTC1413 W x 04 ctx:009 @@@ smartclient esta' usando SSL
210929_170449 23D0 CTC0164 W x 04 ctx:009 @@@ conexao client SSL nao vai ser aceita pelo server (server esta' em modo nao-SSL)
210929_170449 23D0 CTC0165 W x 04 ctx:009 @@@ fecha conexao com client, deixa smartclient fazer retry
210929_170449 23D0 CTC0887 W x 04 ctx:009 closing client connection c:127.0.0.1:52536 p:192.168.1.160:52537 s:181.41.165.211:4000
210929_170449 23D0 CTC0894 W x 04 ctx:009 closing server connection c:127.0.0.1:52536 p:192.168.1.160:52537 s:181.41.165.211:4000
210929_170449 23D0 CTC2665 N O 01 ctx:010 waiting connection with broker, handle=16
210929_170449 23D0 CTC0993 N x 26 ctx:010 received result from connect operation: handle=16 state=26 result=0 serverHandleId=16
210929_170449 23D0 CTC1058 W x 07 ctx:010 will send alerts to broker 181.41.165.211:4000
210929_170449 23D0 CTC3025 N x 07 ctx:010 sending initial handshake p:[192.168.1.160:52539] s:[181.41.165.211:4000] id:[96A61E5C-4FB53348-8FA97B2C-116A7E8A]
210929_170449 5914 CTC2822 N x 22 ctx:010 starting reception of response for initial handshake c:127.0.0.1:52538 p:192.168.1.160:52539 s:181.41.165.211:4000
210929_170449 5914 CTC1532 N x 19 ctx:010 received response of initial handshake c:127.0.0.1:52538 p:192.168.1.160:52539 s:181.41.165.211:4000
210929_170449 5914 CTC2159 N x 18 ctx:010 success creating new connection [EE2DE210-561047B7-A2D645AC-FB815682] c:127.0.0.1:52538 p:192.168.1.160:52539 s:181.41.165.211:4000
210929_170449 5914 CTC2169 N x 18 ctx:010 connected with remote server 10.0.1.4:6000
210929_170449 23D0 CTC1415 W x 04 ctx:010 ### smartclient NAO esta' usando SSL
210929_170449 23D0 CTC1475 N x 04 ctx:010 ### iniciando processamento normal, conexao com server foi bem sucedida
210929_170451 23D0 CTC1403 W x 04 ctx:010 client connection remotely closed c:127.0.0.1:52538 p:192.168.1.160:52539 s:181.41.165.211:4000
210929_170452 23D0 SPC0399 W C 06 ctx:010 server closed connection (was expected)
