210929_172606 3DC8 CFC0448 N version information: Broker 19.3.1.4 bran win64 rel [rev-30861] { May 13 2021 13:47:53 }
210929_172606 3DC8 CFC0429 N HOST_NAME=DESKTOP-0FCAJP7(192.168.56.1)
210929_172606 3DC8 CFC0429 N REMOTE_SERVER_NAME=suntexbrasil108331.protheus.cloudtotvs.com.br
210929_172606 3DC8 CFC0437 N REMOTE_SERVER_PORT=4000
210929_172606 3DC8 CFC0437 N RETRY_INTERVAL=10
210929_172606 3DC8 CFC0437 N MAX_RETRY_TIME=180
210929_172606 3DC8 WDL0160 N starting broker client
210929_172606 3DC8 WDL0163 N using broker server suntexbrasil108331.protheus.cloudtotvs.com.br:4000
210929_172606 3DC8 WDL0652 N broker client using local port: 51967
210929_172606 3DC8 WDL0661 N broker client started operation
210929_172607 4390 CTC2665 N O 01 ctx:008 waiting connection with broker, handle=12
210929_172607 4390 CTC0993 N x 26 ctx:008 received result from connect operation: handle=12 state=26 result=0 serverHandleId=12
210929_172607 4390 CTC1058 W x 07 ctx:008 will send alerts to broker 181.41.165.211:4000
210929_172607 4390 CTC3025 N x 07 ctx:008 sending initial handshake p:[192.168.1.160:52247] s:[181.41.165.211:4000] id:[AEBD29C6-81D9C149-A0E6AD66-7D5D994E]
210929_172607 1814 CTC2822 N x 22 ctx:008 starting reception of response for initial handshake c:127.0.0.1:52246 p:192.168.1.160:52247 s:181.41.165.211:4000
210929_172607 1814 CTC1532 N x 19 ctx:008 received response of initial handshake c:127.0.0.1:52246 p:192.168.1.160:52247 s:181.41.165.211:4000
210929_172607 1814 CTC2159 N x 18 ctx:008 success creating new connection [DDD19E3B-34EA4B44-AF5A7EF6-0F530DED] c:127.0.0.1:52246 p:192.168.1.160:52247 s:181.41.165.211:4000
210929_172607 1814 CTC2169 N x 18 ctx:008 connected with remote server 10.0.1.4:6000
210929_172607 1814 CTC1413 W x 04 ctx:008 @@@ smartclient esta' usando SSL
210929_172607 1814 CTC0164 W x 04 ctx:008 @@@ conexao client SSL nao vai ser aceita pelo server (server esta' em modo nao-SSL)
210929_172607 1814 CTC0165 W x 04 ctx:008 @@@ fecha conexao com client, deixa smartclient fazer retry
210929_172607 1814 CTC0887 W x 04 ctx:008 closing client connection c:127.0.0.1:52246 p:192.168.1.160:52247 s:181.41.165.211:4000
210929_172607 1814 CTC0894 W x 04 ctx:008 closing server connection c:127.0.0.1:52246 p:192.168.1.160:52247 s:181.41.165.211:4000
210929_172607 1814 CTC2665 N O 01 ctx:009 waiting connection with broker, handle=13
210929_172607 1814 CTC0993 N x 26 ctx:009 received result from connect operation: handle=13 state=26 result=0 serverHandleId=13
210929_172607 1814 CTC1058 W x 07 ctx:009 will send alerts to broker 181.41.165.211:4000
210929_172607 1814 CTC3025 N x 07 ctx:009 sending initial handshake p:[192.168.1.160:52249] s:[181.41.165.211:4000] id:[59A810BF-0DAFBF43-8B12CF4F-5FE4536C]
210929_172607 4390 CTC2822 N x 22 ctx:009 starting reception of response for initial handshake c:127.0.0.1:52248 p:192.168.1.160:52249 s:181.41.165.211:4000
210929_172607 4390 CTC1532 N x 19 ctx:009 received response of initial handshake c:127.0.0.1:52248 p:192.168.1.160:52249 s:181.41.165.211:4000
210929_172607 4390 CTC2159 N x 18 ctx:009 success creating new connection [8EDFC441-29CD45C9-A64FF020-C714B74C] c:127.0.0.1:52248 p:192.168.1.160:52249 s:181.41.165.211:4000
210929_172607 4390 CTC2169 N x 18 ctx:009 connected with remote server 10.0.1.4:6000
210929_172607 1814 CTC1413 W x 04 ctx:009 @@@ smartclient esta' usando SSL
210929_172607 1814 CTC0164 W x 04 ctx:009 @@@ conexao client SSL nao vai ser aceita pelo server (server esta' em modo nao-SSL)
210929_172607 1814 CTC0165 W x 04 ctx:009 @@@ fecha conexao com client, deixa smartclient fazer retry
210929_172607 1814 CTC0887 W x 04 ctx:009 closing client connection c:127.0.0.1:52248 p:192.168.1.160:52249 s:181.41.165.211:4000
210929_172607 1814 CTC0894 W x 04 ctx:009 closing server connection c:127.0.0.1:52248 p:192.168.1.160:52249 s:181.41.165.211:4000
210929_172607 1814 CTC2665 N O 01 ctx:010 waiting connection with broker, handle=16
210929_172607 1814 CTC0993 N x 26 ctx:010 received result from connect operation: handle=16 state=26 result=0 serverHandleId=16
210929_172607 1814 CTC1058 W x 07 ctx:010 will send alerts to broker 181.41.165.211:4000
210929_172607 1814 CTC3025 N x 07 ctx:010 sending initial handshake p:[192.168.1.160:52251] s:[181.41.165.211:4000] id:[306D0CBC-7D5D2442-828DC350-A126323D]
210929_172607 4390 CTC2822 N x 22 ctx:010 starting reception of response for initial handshake c:127.0.0.1:52250 p:192.168.1.160:52251 s:181.41.165.211:4000
210929_172607 4390 CTC1532 N x 19 ctx:010 received response of initial handshake c:127.0.0.1:52250 p:192.168.1.160:52251 s:181.41.165.211:4000
210929_172607 4390 CTC2159 N x 18 ctx:010 success creating new connection [46A358FD-D78441CA-A83391FD-C0F27C53] c:127.0.0.1:52250 p:192.168.1.160:52251 s:181.41.165.211:4000
210929_172607 4390 CTC2169 N x 18 ctx:010 connected with remote server 10.0.1.4:6000
210929_172607 1814 CTC1415 W x 04 ctx:010 ### smartclient NAO esta' usando SSL
210929_172607 1814 CTC1475 N x 04 ctx:010 ### iniciando processamento normal, conexao com server foi bem sucedida
210929_172614 1814 CTC1403 W x 04 ctx:010 client connection remotely closed c:127.0.0.1:52250 p:192.168.1.160:52251 s:181.41.165.211:4000
210929_172614 1814 SPC0399 W C 06 ctx:010 server closed connection (was expected)
