210929_221936 547C CFC0448 N version information: Broker 19.3.1.4 bran win64 rel [rev-30861] { May 13 2021 13:47:53 }
210929_221936 547C CFC0429 N HOST_NAME=DESKTOP-0FCAJP7(192.168.56.1)
210929_221936 547C CFC0429 N REMOTE_SERVER_NAME=suntexbrasil108331.protheus.cloudtotvs.com.br
210929_221936 547C CFC0437 N REMOTE_SERVER_PORT=4000
210929_221936 547C CFC0437 N RETRY_INTERVAL=10
210929_221936 547C CFC0437 N MAX_RETRY_TIME=180
210929_221936 547C WDL0160 N starting broker client
210929_221936 547C WDL0163 N using broker server suntexbrasil108331.protheus.cloudtotvs.com.br:4000
210929_221936 547C WDL0652 N broker client using local port: 51966
210929_221936 547C WDL0661 N broker client started operation
210929_221936 2B00 CTC2665 N O 01 ctx:008 waiting connection with broker, handle=11
210929_221936 2B00 CTC0993 N x 26 ctx:008 received result from connect operation: handle=11 state=26 result=0 serverHandleId=11
210929_221936 2B00 CTC1058 W x 07 ctx:008 will send alerts to broker 181.41.165.211:4000
210929_221936 2B00 CTC3025 N x 07 ctx:008 sending initial handshake p:[192.168.1.160:56396] s:[181.41.165.211:4000] id:[77898B8C-48085B4F-8E0FA3E4-5B9637B7]
210929_221936 48CC CTC2822 N x 22 ctx:008 starting reception of response for initial handshake c:127.0.0.1:56395 p:192.168.1.160:56396 s:181.41.165.211:4000
210929_221936 48CC CTC1532 N x 19 ctx:008 received response of initial handshake c:127.0.0.1:56395 p:192.168.1.160:56396 s:181.41.165.211:4000
210929_221936 48CC CTC2159 N x 18 ctx:008 success creating new connection [953A3A26-BCA3434A-93D37974-A9D8E4FE] c:127.0.0.1:56395 p:192.168.1.160:56396 s:181.41.165.211:4000
210929_221936 48CC CTC2169 N x 18 ctx:008 connected with remote server 10.0.1.4:6000
210929_221936 48CC CTC1413 W x 04 ctx:008 @@@ smartclient esta' usando SSL
210929_221936 48CC CTC0164 W x 04 ctx:008 @@@ conexao client SSL nao vai ser aceita pelo server (server esta' em modo nao-SSL)
210929_221936 48CC CTC0165 W x 04 ctx:008 @@@ fecha conexao com client, deixa smartclient fazer retry
210929_221936 48CC CTC0887 W x 04 ctx:008 closing client connection c:127.0.0.1:56395 p:192.168.1.160:56396 s:181.41.165.211:4000
210929_221936 48CC CTC0894 W x 04 ctx:008 closing server connection c:127.0.0.1:56395 p:192.168.1.160:56396 s:181.41.165.211:4000
210929_221936 48CC CTC2665 N O 01 ctx:009 waiting connection with broker, handle=12
210929_221936 48CC CTC0993 N x 26 ctx:009 received result from connect operation: handle=12 state=26 result=0 serverHandleId=12
210929_221936 48CC CTC1058 W x 07 ctx:009 will send alerts to broker 181.41.165.211:4000
210929_221936 48CC CTC3025 N x 07 ctx:009 sending initial handshake p:[192.168.1.160:56398] s:[181.41.165.211:4000] id:[10E203A1-759DD343-9196200A-223BE7B1]
210929_221936 2B00 CTC2822 N x 22 ctx:009 starting reception of response for initial handshake c:127.0.0.1:56397 p:192.168.1.160:56398 s:181.41.165.211:4000
210929_221936 2B00 CTC1532 N x 19 ctx:009 received response of initial handshake c:127.0.0.1:56397 p:192.168.1.160:56398 s:181.41.165.211:4000
210929_221936 2B00 CTC2159 N x 18 ctx:009 success creating new connection [6CE7AC04-856D4144-B2B2E515-71CC76BD] c:127.0.0.1:56397 p:192.168.1.160:56398 s:181.41.165.211:4000
210929_221936 2B00 CTC2169 N x 18 ctx:009 connected with remote server 10.0.1.4:6000
210929_221936 48CC CTC1413 W x 04 ctx:009 @@@ smartclient esta' usando SSL
210929_221936 48CC CTC0164 W x 04 ctx:009 @@@ conexao client SSL nao vai ser aceita pelo server (server esta' em modo nao-SSL)
210929_221936 48CC CTC0165 W x 04 ctx:009 @@@ fecha conexao com client, deixa smartclient fazer retry
210929_221936 48CC CTC0887 W x 04 ctx:009 closing client connection c:127.0.0.1:56397 p:192.168.1.160:56398 s:181.41.165.211:4000
210929_221936 48CC CTC0894 W x 04 ctx:009 closing server connection c:127.0.0.1:56397 p:192.168.1.160:56398 s:181.41.165.211:4000
210929_221936 48CC CTC2665 N O 01 ctx:010 waiting connection with broker, handle=15
210929_221936 48CC CTC0993 N x 26 ctx:010 received result from connect operation: handle=15 state=26 result=0 serverHandleId=15
210929_221936 48CC CTC1058 W x 07 ctx:010 will send alerts to broker 181.41.165.211:4000
210929_221936 48CC CTC3025 N x 07 ctx:010 sending initial handshake p:[192.168.1.160:56400] s:[181.41.165.211:4000] id:[EE103878-0BA26B48-81DB7043-702E202F]
210929_221936 2B00 CTC2822 N x 22 ctx:010 starting reception of response for initial handshake c:127.0.0.1:56399 p:192.168.1.160:56400 s:181.41.165.211:4000
210929_221936 2B00 CTC1532 N x 19 ctx:010 received response of initial handshake c:127.0.0.1:56399 p:192.168.1.160:56400 s:181.41.165.211:4000
210929_221936 2B00 CTC2159 N x 18 ctx:010 success creating new connection [415BA6A2-556241A3-888642E5-17BE75AD] c:127.0.0.1:56399 p:192.168.1.160:56400 s:181.41.165.211:4000
210929_221936 2B00 CTC2169 N x 18 ctx:010 connected with remote server 10.0.1.4:6000
210929_221936 48CC CTC1415 W x 04 ctx:010 ### smartclient NAO esta' usando SSL
210929_221936 48CC CTC1475 N x 04 ctx:010 ### iniciando processamento normal, conexao com server foi bem sucedida
210929_222007 2B00 CTC2665 N O 01 ctx:011 waiting connection with broker, handle=17
210929_222007 2B00 CTC0993 N x 26 ctx:011 received result from connect operation: handle=17 state=26 result=0 serverHandleId=17
210929_222007 2B00 CTC1058 W x 07 ctx:011 will send alerts to broker 181.41.165.211:4000
210929_222007 2B00 CTC3025 N x 07 ctx:011 sending initial handshake p:[192.168.1.160:56404] s:[181.41.165.211:4000] id:[E4598641-2D736446-B6C4BBE5-AD69279A]
210929_222007 48CC CTC2822 N x 22 ctx:011 starting reception of response for initial handshake c:127.0.0.1:56403 p:192.168.1.160:56404 s:181.41.165.211:4000
210929_222007 48CC CTC1532 N x 19 ctx:011 received response of initial handshake c:127.0.0.1:56403 p:192.168.1.160:56404 s:181.41.165.211:4000
210929_222007 48CC CTC2159 N x 18 ctx:011 success creating new connection [D980F68E-578D44DA-B963B0EC-D9A08BD7] c:127.0.0.1:56403 p:192.168.1.160:56404 s:181.41.165.211:4000
210929_222007 48CC CTC2169 N x 18 ctx:011 connected with remote server 10.0.1.4:6000
210929_222007 2B00 CTC1415 W x 04 ctx:011 ### smartclient NAO esta' usando SSL
210929_222007 2B00 CTC1475 N x 04 ctx:011 ### iniciando processamento normal, conexao com server foi bem sucedida
210929_222742 4A90 CTC1403 W x 04 ctx:011 client connection remotely closed c:127.0.0.1:56403 p:192.168.1.160:56404 s:181.41.165.211:4000
210929_222742 4A90 SPC0399 W C 06 ctx:011 server closed connection (was expected)
210929_222744 4A90 CTC1403 W x 04 ctx:010 client connection remotely closed c:127.0.0.1:56399 p:192.168.1.160:56400 s:181.41.165.211:4000
210929_222744 48CC SPC0399 W C 06 ctx:010 server closed connection (was expected)
